


           ,                   ,,,                        ,,,,,              ,▄▄▄▄
          ▀████▓,       ▄███████████▄        ▀██████████████████▌           ╓████▀
            ▀█████,   ▓████▀▀¬¬¬^▀▀███▄        ▄███∩`````└└^▀████▓         ▄████`
              ▀█████▄╙███▀   ████   ████       ███████████▀   ▀████       ▄████
                ^█████▄      ████⌐   ^███▓     ████▀▀▀▀▀¬      ╙████µ    ▓███▀
               ▄█▓▄▀████▄    ████⌐     ▀███▄   ████∩            '████▄  ████▀
             ▄████▀  ▀████▓  ████⌐       ▀███▄ ████∩              ████▓████▀
          ,▓████▀      ▀████▓████⌐         ████████∩               ███████▀
         "▀▀▀▀▀          └▀▀▀▀▀▀▀            ▀▀▀▀▀▀                  ▀▀▀▀
                                                                                    By AH.GHORAB
                                                                                    he.amirhossein@gmail.com
                                                                                    winter 2018


